output/adder_1.vcd
$date
	Sat May 23 14:54:48 2026
$end
$version
	Icarus Verilog
$end
$timescale
	1ps
$end
$scope module test_adder_1 $end
$var wire 1 ! sum $end
$var wire 1 " c_out $end
$var reg 1 # a $end
$var reg 1 $ b $end
$var reg 1 % c_in $end
$scope module UUT $end
$var wire 1 # a $end
$var wire 1 $ b $end
$var wire 1 % c_in $end
$var reg 1 " c_out $end
$var reg 1 ! sum $end
$scope begin adder_gates $end
$upscope $end
$upscope $end
$scope begin $ivl_for_loop0 $end
$var integer 32 & i [31:0] $end
$upscope $end
$upscope $end
$enddefinitions $end
$comment Show the parameter values. $end
$dumpall
$end
#0
$dumpvars
b0 &
0%
0$
0#
0"
0!
$end
#1000
1!
1#
b1 &
#2000
0#
1$
b10 &
#3000
0!
1"
1#
b11 &
#4000
1!
0"
0#
0$
1%
b100 &
#5000
0!
1"
1#
b101 &
#6000
0#
1$
b110 &
#7000
1!
1#
b111 &
#8000
b1000 &
